^E:\GAME_PROJECTS\VS 2013\LAZYFOO - SDL\MARIO1\MARIO1\DEBUG\DOT.OBJ|E:\GAME_PROJECTS\VS 2013\LAZYFOO - SDL\MARIO1\MARIO1\DEBUG\LTEXTURE.OBJ|E:\GAME_PROJECTS\VS 2013\LAZYFOO - SDL\MARIO1\MARIO1\DEBUG\MAIN.OBJ|E:\GAME_PROJECTS\VS 2013\LAZYFOO - SDL\MARIO1\MARIO1\DEBUG\WALL.OBJ
E:\GAME_PROJECTS\VS 2013\LIBRARIES\SDL2-2.0.4\LIB\X86\SDL2.LIB
E:\GAME_PROJECTS\VS 2013\LIBRARIES\SDL2-2.0.4\LIB\X86\SDL2MAIN.LIB
E:\GAME_PROJECTS\VS 2013\LIBRARIES\SDL2_IMAGE-2.0.1\LIB\X86\SDL2_IMAGE.LIB
E:\GAME_PROJECTS\VS 2013\LIBRARIES\SDL2_TTF-2.0.14\LIB\X86\SDL2_TTF.LIB
E:\GAME_PROJECTS\VS 2013\LIBRARIES\SDL2_MIXER-2.0.1\LIB\X86\SDL2_MIXER.LIB
C:\PROGRAM FILES (X86)\WINDOWS KITS\8.1\LIB\WINV6.3\UM\X86\KERNEL32.LIB
C:\PROGRAM FILES (X86)\WINDOWS KITS\8.1\LIB\WINV6.3\UM\X86\USER32.LIB
C:\PROGRAM FILES (X86)\WINDOWS KITS\8.1\LIB\WINV6.3\UM\X86\GDI32.LIB
C:\PROGRAM FILES (X86)\WINDOWS KITS\8.1\LIB\WINV6.3\UM\X86\WINSPOOL.LIB
C:\PROGRAM FILES (X86)\WINDOWS KITS\8.1\LIB\WINV6.3\UM\X86\COMDLG32.LIB
C:\PROGRAM FILES (X86)\WINDOWS KITS\8.1\LIB\WINV6.3\UM\X86\ADVAPI32.LIB
C:\PROGRAM FILES (X86)\WINDOWS KITS\8.1\LIB\WINV6.3\UM\X86\SHELL32.LIB
C:\PROGRAM FILES (X86)\WINDOWS KITS\8.1\LIB\WINV6.3\UM\X86\OLE32.LIB
C:\PROGRAM FILES (X86)\WINDOWS KITS\8.1\LIB\WINV6.3\UM\X86\OLEAUT32.LIB
C:\PROGRAM FILES (X86)\WINDOWS KITS\8.1\LIB\WINV6.3\UM\X86\UUID.LIB
C:\PROGRAM FILES (X86)\WINDOWS KITS\8.1\LIB\WINV6.3\UM\X86\ODBC32.LIB
C:\PROGRAM FILES (X86)\WINDOWS KITS\8.1\LIB\WINV6.3\UM\X86\ODBCCP32.LIB
E:\GAME_PROJECTS\VS 2013\LAZYFOO - SDL\MARIO1\MARIO1\DEBUG\DOT.OBJ
E:\GAME_PROJECTS\VS 2013\LAZYFOO - SDL\MARIO1\MARIO1\DEBUG\LTEXTURE.OBJ
E:\GAME_PROJECTS\VS 2013\LAZYFOO - SDL\MARIO1\MARIO1\DEBUG\MAIN.OBJ
E:\GAME_PROJECTS\VS 2013\LAZYFOO - SDL\MARIO1\MARIO1\DEBUG\WALL.OBJ
C:\WINDOWS\SYSTEM32\TZRES.DLL
C:\WINDOWS\GLOBALIZATION\SORTING\SORTDEFAULT.NLS
C:\PROGRAM FILES (X86)\MICROSOFT VISUAL STUDIO 12.0\VC\LIB\MSVCRTD.LIB
C:\PROGRAM FILES (X86)\MICROSOFT VISUAL STUDIO 12.0\VC\LIB\OLDNAMES.LIB
C:\PROGRAM FILES (X86)\MICROSOFT VISUAL STUDIO 12.0\VC\LIB\MSVCPRTD.LIB
